INDEX VERSION 1.131+/home/RHITESH.SINGH/Documents/workspace-spring-tool-suite-4-4.10.0.RELEASE/.metadata/.plugins/org.eclipse.jdt.core
2414358674.index
1153088593.index
147287611.index
2121758578.index
4047071678.index
2431965192.index
1363321857.index
1276283003.index
208206149.index
2150315655.index
2263808222.index
3318313350.index
840701926.index
2328963065.index
4265235961.index
3422884836.index
4078633592.index
3036097681.index
2007289790.index
1409643932.index
2505075440.index
1641604184.index
2388019403.index
2670048022.index
1460164238.index
1208064120.index
526349352.index
2121301033.index
1682768630.index
4053060175.index
2433578162.index
3359058680.index
3009167755.index
3034749625.index
917426958.index
751163914.index
969363863.index
3590311117.index
3240471920.index
4290015884.index
2961240215.index
944359288.index
1799401345.index
4108641989.index
663294925.index
312785355.index
4282758172.index
344289818.index
1444166576.index
1630628728.index
284939657.index
525092414.index
2226641848.index
713006103.index
321988834.index
1317547300.index
1680261045.index
2215357489.index
3169915810.index
4029584617.index
3235114311.index
2455905012.index
2926788854.index
1866392785.index
4285169465.index
3860631264.index
80957260.index
985225297.index
1710740991.index
3033756053.index
2498450304.index
2793166018.index
722455096.index
3996068886.index
1877755915.index
180503167.index
3310883773.index
3848152082.index
3305048804.index
281200762.index
122847782.index
3731897770.index
1138680171.index
1008398895.index
2727915149.index
3253472994.index
565589626.index
3438360470.index
3816305555.index
4008733332.index
717946059.index
1845882263.index
3753064209.index
4029419173.index
3071233467.index
1628921762.index
2166133371.index
2338027440.index
1954111104.index
1611222924.index
875754053.index
3144135709.index
2044413377.index
874159879.index
2927613501.index
2101334977.index
3474967304.index
420486987.index
2954295791.index
1730425935.index
2908613786.index
3094514137.index
2794444179.index
4076636694.index
1327600764.index
868329316.index
896443027.index
2078331263.index
3298942457.index
3875387911.index
